48916920
15918336
27120000
21565440
24124320
36408220
23538240
1562976
12347520
76707988
40158720
30563076
25691752
25743744
33443928
28561344
4924800
806400
7881408
17400960
24288840
26611200
6555712
10380392
9848780
9796864
8781696
36727808
12970152
39322420
37949184
67272532
32282208
2519712
92786232
17619876
99466330
23942880
14256000
60741120
25956480
17199744
42082992
42191820
17205552
16972800
35743680
5080996
51030240
25552800
7257600
27888528
37669440
48171690
31060656
42750720
7513122
34179840
14314120
7539840
36739560
19215840
12989920
31296000
55890000
67256128
10212616
33791692
38683662
33779500
15454304
31125600
23775120
16823040
47882880
8026024
32206288
81542202
20951040
17197632
19148112
32635904
47656860
23345952
48014824
5057712
27555840
57986800
29617920
20288112
40404352
7673400
24031800
91610008
2776576
53056080
28054368
55224000
21777888
238128
4484760
12200088
8057412
29181600
14450400
37642080
43399044
738000
58573440
1262496
5550328
1005480
22941360
11059200
5056800
16309088
53679100
23835408
43353600
37707264
3851928
22937596
7203840
71457024
9494400
88529364
69190848
42787524
51569400
35493120
45382680
16224000
69131748
83414400
78012616
44225720
51727896
15935040
66134880
14566656
45836220
5578524
84229966
13319202
24354468
38326080
61870752
74975976
35518176
45105984
44734050
70184088
21920000
35102520
73591080
16266320
33825792
70470528
14313600
12266496
25345152
36836760
47416320
50700800
84676860
36910080
22660800
41804386
6770360
29491464
19684100
11746072
22120144
13779240
5364480
23592544
31841460
4549248
31124640
45813696
45498000
11768256
1840320
11803680
17253072
2271418
15966720
1523456
22036224
11550768
42193180
31782960
73627488
33597000
13024424
5591040
28595328
64874160
23921712
41320246
11271036
38159016
7188576
63520000
2901984
26777376
25014528
35860528
46703664
61367904
11827200
27078228
28645488
31605332
89364384
51592896
84727648
29827920
33653760
14915136
30121600
52674540
71567496
33693804
31739904
27327096
21213640
62706960
4435200
68431540
1793120
73072000
30831840
16061568
50169600
14565096
74948160
29966304
31291296
12089856
66899038
16389120
44634688
22688052
96319770
32624100
39738720
36652000
15266180
14523424
13930416
36437242
32177448
5665296
29634048
6771600
18536448
13857480
9502080
9684224
2839296
34463520
10520832
18237600
13543200
26041200
22286880
25740288
7707260
22595328
12617856
6561280
5157120
39414228
6381600
1576704
67522032
5781264
31766784
5548092
47480832
38297600
23462784
5248072
67207800
74807040
2207744
17418240
23910400
37189152
29264480
3100032
44717872
46404960
24319062
15578616
56472660
6295856
5480960
69366528
15456096
26761536
67931046
85323228
57689280
1562100
37685616
32798304
36778560
47811456
47707164
6263040
1801440
9262944
2891520
16849320
37618560
57771324
58771440
15581808
4243752
25187472
16949500
46236848
42690240
12690644
51084800
23761452
5089728
26084640
38598432
44485080
77475840
20563452
15865920
18651872
11068456
24862032
64810812
50061888
64458240
1785840
8880240
3021120
21488544
37728000
11913084
8059392
822528
78620392
20968812
26509186
24747648
4347564
6639792
27051840
61272288
15074304
44034760
43716144
31779936
10972128
15190656
11622562
90032490
32892480
33088672
91778400
83096992
30731456
72534138
59109120
55847484
26513320
1575288
2893512
30670848
60219680
1182720
15609600
36444096
13305600
5899152
85724992
22407840
35408640
65365440
19112112
29256336
29564352
47732076
48664320
41340096
46797332
10821888
60790400
84835072
48464640
51665320
5539752
28273416
1800468
21439296
61159488
7018980
37515600
52537968
36172224
23774520
30810400
31426560
8161560
6989400
4134236
47669400
25787520
25234188
33136824
27589248
50060160
786240
11793300
40943760
42572304
20449408
16396032
13196746
38656800
5122048
9209240
21400512
51791400
10154096
60687712
38498280
34892808
48361600
4940160
23477124
12316320
5372640
8973500
39421440
16978752
28230048
14804232
36506016
14590800
14560560
33602132
66370428
2942160
7459200
52248024
11761200
8135280
34722240
21551744
13285870
7466792
4134240
41183520
7633540
19118584
26809728
4174080
21301000
27276552
10734048
21382152
3075072
22755600
13434624
17712072
22565656
81528840
21822048
49651948
43677072
34845936
4268800
62944464
65664000
46072152
15253824
24447360
41289300
20869200
10963920
53210880
53498880
21083328
26020800
23950080
15122212
58650480
64871280
83096776
27853644
27486336
2042880
67251000
26383824
19232640
95443426
39336624
16176456
23304480
44411576
9784320
49319140
46566648
29491200
34635744
14133504
25029648
19377360
47564176
3317760
13996800
4179072
20624856
30431928
62190144
92239024
16605840
30336768
58752000
9407808
12588712
20250420
26482560
61227696
23671200
57003856
8619840
61012800
887568
27128592
34325280
50176800
92212476
32812836
26401128
85695232
16990660
9432800
47860152
37529856
15874560
11890368
63323592
30144504
45010116
43365708
2258256
14634576
39003840
5911464
90520848
7257600
29198400
77040
33117336
25655040
3655824
4695680
21205800
12594816
89055288
62161920
39883360
24173176
21385296
38680920
69744178
27483768
4827600
26316640
27633376
5875416
52307040
24473232
7493160
22112944
77563788
88318144
18407328
16507008
40884480
28748160
22591206
71972556
41884416
29519492
72815748
44142336
48639360
5329980
16170672
73251120
65746944
29249856
51545724
10044520
63726912
9198480
32011920
60095100
34113792
29610000
65241088
26863920
12096000
14449248
28879872
25760000
40538880
14883264
26861760
23604120
88235620
84784386
58620464
30664936
36043840
35552960
8980416
7750080
37748536
52648992
39391560
21608640
41347296
41470272
24317796
6043452
11284416
46685188
29628672
1045440
60723432
22648896
73163076
21025440
26564160
43993248
55710480
19480032
40392000
16879248
10566850
34584840
49302720
13125024
6896830
71135278
31341940
38545056
1537536
43558872
46617984
12658176
14891748
61391220
54923616
41106688
49670316
22002768
79503666
11586656
58724352
11988928
34979608
13980672
79381120
62377920
13296960
29661072
2782080
37820008
15668640
46216800
52454688
28007928
5562576
7251660
22178272
7963008
6476218
26182800
31455160
10359744
3361560
25812540
29805120
91444900
35003260
35100756
70783968
21488544
20689468
17920224
3486716
52444800
23856784
20462400
48480
11741520
28902720
11071656
9768960
36502272
26547552
18555160
44012320
31534272
16727040
10739712
26566560
81327678
78132720
11004880
7256008
27202560
509796
83791840
62305776
7772160
13534560
21997312
13652892
19275840
7603200
23566620
30960160
29938176
19637280
2407160
23175432
16123588
212480
7971840
27645264
8699852
3993476
76519260
91152580
68008768
3009600
17671704
18835968
21998592
17256060
22755912
47351040
37663192
141696
16614720
17993920
81473280
24148160
11855088
18931920
27465984
6470784
631642
47710080
30456000
17826336
10500696
16343040
83299896
32583984
92162700
2072232
32983776
46282752
14577408
22525270
5333856
16687104
39950400
42012906
17416152
51877496
47284440
21446592
13106592
63445680
26592612
16688160
43465536
13048736
19949032
37648800
13726928
5069904
17064796
6557408
9904292
25382560
45957120
40932864
46105920
25592000
15692520
20761920
21956320
44741264
74438340
14082516
60456096
48325264
33614776
43722384
36826944
14801952
41558380
20458836
8512512
10951470
34793916
19306752
27605760
54238464
37993792
17452128
70117824
42650496
7082040
16162560
90288996
89108760
15394176
3874242
20275968
27419616
4940352
86629620
52496808
44513100
6391104
23388488
80449248
4572288
67678776
33785904
23463936
43967760
16934400
86131776
12290036
72250000
28245540
3656340
157248
57244560
4526484
13792844
31342240
26280576
31933440
36851640
15092592
40418112
65423376
43266852
28976640
14018368
5432472
27433472
8801520
86475312
7261056
58394688
39275520
16823040
394240
16524288
73249344
58329600
20087040
16361556
43849438
6702880
18135040
85721896
7726464
20903520
17815200
160080
63078528
11548656
4792576
26162720
21810592
87294840
15624000
15118848
7770240
31807512
26251296
3133440
7988352
22331232
4503744
12632292
29564328
1412640
41101266
16840740
1327104
32634564
6633760
15968016
16808704
40658560
48126120
25698176
23043672
85532832
31925076
36580828
81953872
27168480
1610352
52511800
6872520
900864
63573120
37914012
36670464
262080
2231936
54043200
759648
18610992
18540480
47068620
45328896
23594432
36119040
71202780
14224672
84719520
24638688
46284048
92113644
1098240
94814496
21902676
77279640
11753424
16827000
12806420
10867968
8731800
33200576
70920192
11448448
27083808
47405952
57923160
62907840
39795840
1005552
6061000
25279488
36174080
42481432
32928768
212736
12783144
6555610
8907840
12115800
26548992
85647046
31123872
8978944
14359680
41024160
46992960
15144480
47109220
12531456
5434368
30865000
4837056
43571200
6152640
2012208
15155840
25196544
20929392
14086224
37244160
81202584
20825490
28357540
67497480
12521964
29538432
2871936
10089408
55035552
84222576
33776512
21593088
46805040
36979488
12398400
8001000
24813672
20485600
80932320
39623896
42851800
6001476
25867776
41254272
47351808
24748128
33415200
9768420
38522976
16964068
70889112
38021760
44077740
24177846
33859948
11825880
8646850
34979280
38100096
47079648
731400
17700672
4516800
9803904
5892480
25209696
10529920
34692918
31233312
47551680
4741360
246276
44367480
15786960
8298720
2882880
11132640
3050496
24692640
4521568
31748160
32193072
5307438
46028352
2237760
31213728
2689344
22023320
33024720
7228800
15629760
27005256
38711688
24222240
504096
18728676
13271040
12805056
98762476
133824
11337480
76253760
31965826
32472576
56911476
40645596
24845184
36604984
45652896
43105104
18884976
22697920
6424000
12731040
51908000
9830400
3674160
19740672
22521472
26503616
32784840
54611200
27574560
43083826
34974700
9058752
76253760
49733920
11859520
7096672
6050880
33532160
250272
30108006
44699520
59233386
31121280
11973600
20580480
25549008
28431600
43885460
28964160
46698048
52770976
33461040
20900096
32265312
33679800
21582880
24206904
81524016
39391296
38481576
42456960
17794296
29131104
17789184
1877400
54997992
35379556
49111200
7949244
23369024
9859840
1855872
58277952
66372768
16588288
1955328
38327184
9795720
89355000
56422656
6002304
83753518
28867136
12796800
57385152
14407680
1594656
46232472
22488480
50637312
33421664
38305080
39807600
49920000
30631392
32783616
46101120
5443200
20875776
66792852
43329600
43634864
55587168
45826944
32866560
43703296
48977338
37806960
48800208
27086400
26554176
76113400
35733812
14676472
10927576
10273824
5924000
30172740
35921778
73512000
33592752
74174544
51354720
68157412
25281504
91280480
29816640
39220224
87866532
22944768
4857696
89460360
11920608
32260800
1906320
5394816
13221936
46960200
70837200
29713944
10746240
47190264
15433920
10637312
35578144
15786736
45514440
45157400
60266100
86310720
38651328
29112832
29848680
59153544
26378240
28823040
16800768
70570072
10264000
43583424
79109452
11899392
11052624
14229000
5575680
10182720
6904320
1469412
15218280
9217152
75756048
26163648
10900512
13177728
28855296
15829344
3403080
55074848
57744536
80868744
36731520
12252240
1725240
29073408
47361600
59480640
51246580
71884800
3627200
18891042
13286944
11461824
57085270
83445288
17691984
40702464
8190528
38157552
15606684
12053760
91617216
8515800
52978800
70569738
93055168
88295796
30835200
3984960
87805536
42134188
8817984
9236920
83720686
27663440
2025244
40323304
19959840
81492096
15128960
32084000
5473244
32742096
19587360
12700080
32030720
86835648
634032
17208288
48357040
93482880
44486280
29335440
9800448
40607064
18321744
22876152
44206800
42431488
36067200
34492124
40273920
12507840
19008000
36707172
62806332
58534640
31675392
38934670
66088360
2481552
36185500
19848768
31851456
21614112
48017200
59421600
60229152
27979872
5935680
46253844
35357688
28731648
46927872
4841760
49147856
2891376
35446208
30944160
81668368
28439040
16916760
24842160
38142720
7541424
13024000
7477008
6808000
40976464
12496896
23508720
76020228
2880020
47136768
27365000
17162560
24149080
83555232
43908480
13728000
27143424
53803680
32367196
9016920
1056384
16382664
11088000
42007680
2842560
19111680
30397248
14313920
8063400
42893568
5685440
24325056
30593472
29875104
34127240
77539282
18585600
27672192
15768576
49248000
27191808
18954000
30054528
6153916
10906588
34043956
12559104
37712848
3505200
28973760
19809424
22413984
6497040
30217536
12353446
5078304
43531776
99435046
28941696
44074992
18840000
30465360
8176872
12323120
25712160
89423136
42157440
22751664
1112940
24218020
47051904
29776200
7708800
40702176
46288768
561600
12582432
12019968
12770880
23167296
22056960
8515104
20249280
10089720
86714838
42536736
20372148
47570488
25404192
42167808
43681680
69026496
47683584
33313216
50871888
28668672
89398656
18437760
15984000
15040512
70619904
3482400
36252000
62891568
44554752
37951200
18493104
5316480
16824208
73398264
35056630
44504512
47511360
1952280
24756848
24238320
18518544
27900000
77435680
22358400
8108424
25567488
16298240
44930916
31796324
20227968
26107200
28224000
7257600
38727360
30683520
49039200
39755520
24177312
52850052
10867584
34442520
19330560
15026928
31995072
22059648
48003840
30588666
32357312
46040040
12962880
20440480
2158512
16531200
4371360
26302320
31303680
64432704
32713956
29320704
5508864
43404800
1413516
25667928
3207552
30461184
59949504
5473696
43058400
17388000
35410176
26228736
20938680
75030184
36042840
41225040
10588896
55192368
96109540
6749760
19851080
49649688
27571840
58511816
31806016
35574000
93091680
17877888
1909440
14388064
38634216
89680896
39500832
2492912
38562240
50736000
33530112
24611688
5376000
11965066
14708496
6376032
28443120
1749744
6578400
1265856
23679996
41762952
24268544
21375936
38255360
69086160
26915328
90107424
51720120
5356080
35963136
26063040
26836992
69159440
22632960
86313172
47381760
3900960
2064000
7944640
7443072
23664960
13543200
6984
63401058
73562112
51959206
49166400
33073920
65648016
4202496
9699144
18919008
26454240
42844032
19140096
60007008
17252352
44902176
48232800
88634640
20784456
37696800
22287360
63315600
227824
10784448
71454240
34293200
22565760
10300976
78615706
14732448
79455960
6525344
3588312
23177088
26426400
64547926
35954880
45474660
38001264
10314304
15663116
24857280
96296256
18777560
1081152
4952592
16956540
49617024
38216064
31098336
84196800
33006528
10762752
6847836
75775012
90456252
30747780
3573108
32380992
85409112
4461600
10594224
3919680
3570840
52218720
62787576
36919248
10176192
12840960
42372736
7909000
14150376
64895686
21239472
22072128
42353280
38643972
38513856
18938880
12667248
7109472
40922112
3196440
29067648
7464000
26270640
22827816
43015104
23390096
23978880
1619968
6348372
87452236
22247424
78253216
35921184
45030384
7363584
35143680
3577728
10284480
30682800
25570224
14786684
55816320
25138080
45434230
13366080
45684178
14372280
21510912
26058240
19543560
32860542
313344
5963136
31101840
92671488
8823168
9088308
10734120
38333568
11239032
33323136
22713360
29952000
13200624
29030400
24393712
23614560
85357888
19230480
47735440
36564480
75774612
27319680
38567988
53634960
85170096
67321800
43061760
11941776
18369792
30238782
39891328
5366880
97634446
54157824
43922818
60554376
3462048
6088320
58440960
51014016
37765552
8984640
29502748
13074048
9386496
52160436
32922880
3222720
69662320
15330462
29841120
29352960
31187520
63654624
64240800
73120056
74193840
44633152
60928000
5593536
90207120
39102160
10392
18252000
12907104
10329600
41547082
25099200
6614400
9432132
20267520
87333792
90719200
70075800
28849900
15558480
6929676
2026944
9444864
16904448
3401856
26608128
8460432
10272288
35698320
31051944
7399872
571200
21938688
35782992
17542656
21542400
43321824
34889904
20127744
9631560
1562400
8305920
48661776
19209600
27726480
95620200
74345016
17061472
26322816
32524416
17724096
19773424
31258332
25154220
19198520
39417312
433664
19905072
63360
3875200
87476400
95800320
5968800
45764160
83645640
29195304
59150208
29500464
53158944
64244880
24292800
65419200
20366370
7770240
31387392
27201312
17407104
33020832
16204708
3812592
7452000
6493608
29721120
10116384
5576280
40855320
5569200
57281184
15281760
21488184
9801792
63158040
77832360
27613260
12379392
7585760
82321038
24471598
3073896
96329520
22356000
49250376
2265840
14406000
26769228
21510130
21407904
30698216
22770072
1340064
46319552
56651616
16581696
11498880
35599488
3944160
11084960
60066072
31619472
57989032
36078560
45982836
25705332
1045824
11913768
51509360
17015664
34827000
13891584
23528736
15949440
45516232
11054676
81484600
48162048
17726616
8346240
9509248
86893452
538848
14591872
13385520
31651776
66027032
39097608
81437616
28238760
18457920
26876388
17696448
1962240
8517600
17227776
63332176
11859712
1017600
11499840
3503400
19419600
42666624
43505280
726528
46341960
4812768
72458928
41558400
41280624
24672384
25509892
25625712
30810528
4818960
17859072
25552904
21088576
58256352
7603200
53415360
21732480
62175360
34068960
31935456
35479296
29405328
29440424
20479500
30742976
22070880
14501984
8352720
6661200
33456276
2420624
1108080
37585968
33760112
30600504
29773920
24235200
27836480
8731152
4261088
1732800
48964520
8532752
1616076
85855192
34974720
34325120
6960840
37339942
32946240
6967680
65295560
44701120
3212520
10286976
80516800
54349620
694016
69638400
14244720
24890280
74787120
31933440
43545600
12388800
38165280
41438880
85683312
47461248
6921800
6413328
19441038
37134720
14515872
24254880
63619468
27574272
69252480
92296908
23968000
24385536
61453920
54936720
3589392
24159168
18880896
7615020
13104960
64565200
4217760
12526080
26231040
5876160
9560880
34594560
38853780
16853760
75115360
6189552
36253120
4469248
9279360
58673664
8627896
693504
3191760
23490872
25012736
5226478
5575456
33431424
32915232
24772608
3404800
31561920
50783040
17463600
37798480
73685350
70310544
10282000
30308040
11081280
25119744
8818320
76967440
17107436
4276800
7248000
34374456
28374504
35512900
4356000
13627440
4564196
25789824
17457520
10222080
50799336
12895272
19677240
28019040
14430048
28757792
65481000
19443912
31134520
79070640
35232696
62231204
58300470
58665148
32627800
43831296
9294720
36207600
75287958
43780096
47509556
28884816
12174624
29238336
26117280
62956880
22397760
27702528
68163768
22911116
47271552
23385600
27881744
11962944
36230208
9580032
71366400
63280728
20972640
69605208
32678136
64981378
62495896
32727824
44253840
31723800
59188416
25395336
61437712
8146080
16369920
24771472
21181200
31041120
28030464
11228616
44901480
53248104
15125184
49942578
8340880
23446768
10687488
67954464
64494144
12747348
7082676
23580672
3086712
48489600
63609700
43919856
41472000
23457600
75833280
30273906
29811600
47831040
51779520
49953792
10682112
13985280
22552156
31104416
32021120
94759992
19680784
11557728
15674656
51174740
27803896
34444420
39030480
28812960
6602188
41507782
16539936
1218816
16746528
28215918
5156352
19635840
20006208
19821312
30957312
8512464
9910080
12494592
5484960
52065832
16023744
3993696
13129216
806832
4819392
75729958
6741968
7587960
39070080
2080576
21556376
10015008
3780000
28442880
1438884
62614944
28770396
7043520
39936000
5765760
93320208
25353216
27417760
11827200
7614292
23261688
10147680
11196216
46330782
36731308
11573232
7879248
19944432
59802744
16251840
23309856
27383616
93767916
27861120
45534720
13662000
75849760
18449280
28631968
1192800
13067520
41458380
1298288
2963520
29625400
3217968
15748560
71319936
21236800
90528
10341408
51862776
35458560
67440048
37506000
26183376
16450560
60881184
776160
19528704
48299264
35381760
89419398
33862400
5217504
2381856
5990400
36602360
49078528
6764976
997872
65559312
46708992
13395360
12418560
27805500
49092036
29006720
9809280
28530840
18778368
57079536
28877904
11250432
16435200
15831552
20114400
15445104
45404636
19167768
16718272
16225920
40994208
5838384
5040432
6425032
77036632
16178096
4157520
6178932
36400840
28615320
4632016
13918560
4764960
54935712
16299904
15664800
9586368
81335808
48032320
12224480
5264560
34279596
15155712
52177396
4504920
30309552
4020768
44711472
65405760
19907472
23082216
61328304
1546536
56214648
50505728
41659264
67882400
20554560
24768000
15676416
90260352
11437440
20479872
2927040
44514540
25872704
39815040
27874290
55974240
16423124
51660852
34065792
13693680
45349008
77995008
47554560
4613760
17142048
37315392
9468000
17117568
14564448
43890460
30046432
6713670
66588876
38638320
24365520
30309990
76745728
16025760
8160000
31976064
382400
10092358
29360328
22456320
15405024
55843200
39275040
12073152
267264
13497344
33528960
10253952
45975504
9408744
9724192
18557424
17353440
41635760
16689240
25176000
8436000
16670400
30704544
68214720
45984240
27605760
5900848
26235900
18154664
10932480
9035712
22409098
29816672
27787536
42879586
35190408
79224108
2982672
17791488
30578040
39360780
9936432
9059688
16066512
11801808
13478400
49744800
59178336
13564800
62756928
7572888
22337640
29221248
55321440
10692000
12363680
48108816
53419392
33203520
28041552
16148160
38186448
28297872
33803136
81832032
21748608
35623104
12733920
24580448
29099148
28946400
12027952
14899968
38568960
39946104
41132304
26624640
42349944
30918616
38843376
51061192
1641600
3121920
63858560
42292800
30190848
58401636
50122272
4407120
5336280
14404600
25117824
19733760
18033840
24887520
32124672
39443040
38233728
54113664
47343744
3514368
37368576
105516
29078784
4247040
30972780
48476384
9075456
36558144
6521352
25266168
39253776
64746490
39765600
49902336
5489088
57422916
9185400
47357784
13784868
12138092
4614880
5428800
69908520
6727280
21429504
14590306
61508160
33442080
42866560
67926672
13433760
59493000
71623428
23485280
12492288
7539280
80917476
9832752
52436160
56468220
16996896
7213032
4112640
24034752
21578260
3346656
31475800
35043840
11531520
7335720
1658008
73887624
43595400
16849128
4798432
12689624
56823200
75534336
43730544
2853120
26857440
31753008
61565000
4592640
36263808
46851840
51857640
5134000
18428256
23578896
9525600
22413312
54226944
2121504
5146560
21635484
21809520
31990176
794640
24456822
63360880
20265664
14218240
58558752
80628370
13229568
10276560
7245264
46110720
65103984
6445464
13434624
76480
13507476
59712840
83567232
12500800
20260936
42915600
66048360
58895064
17607888
36944064
73706712
52010200
4862256
64214592
25441200
94076640
59232960
18589824
22711680
45245772
4836552
10407936
33729648
9381744
45387888
36650272
43335336
33381936
33206544
64221552
31292368
33258456
8279080
18337824
59204736
33092784
23693424
17515008
50734200
5728320
45573408
33273400
14526000
6780672
21468288
23562720
26628884
80759980
6416584
47691600
18549024
57026160
9636480
65504400
18063360
1034208
42600960
33815040
35884332
31000000
46967096
52729920
2418720
62739360
47863200
27210096
66529944
75634824
9211776
15403716
3116960
56383488
12241152
65608302
15686688
43560748
26491872
37583644
27177120
6806160
17884800
28135296
61751360
3643168
37966080
3771360
46062560
25350660
49456720
21579936
39792060
14699832
33293820
14095540
87942708
39693888
66169752
21442960
65461528
36596160
3750120
69821440
25040960
63211408
12768
3633840
48118784
19532518
48588400
59781888
55702512
57425184
74010384
19025280
22887360
92241586
49533120
33237704
47099584
57580720
8127712
12377664
35446848
47215872
81090402
15039936
20939392
16214016
27046992
26024544
12651252
1615680
17001600
91440
20842284
30166080
30368320
26601600
16369920
31683600
13644760
4631040
9806580
37318400
18766944
73774668
64015176
12170232
26178648
33763584
64928448
23210120
5785344
17629932
74151648
26694720
7337920
37000800
32992044
18037440
20837376
26127360
9084672
35584128
11939616
36590400
30671520
46412800
15962400
8967024
1972992
6721080
36434440
24287472
15462416
10289664
17912640
11612160
81873792
23658272
19847840
38148048
11396700
10108800
65565360
90341472
65585736
28062720
228096
34535952
18921220
26852232
28728000
55487520
42400800
36552060
13150320
11000448
41227560
18506880
83012904
46388400
64795248
49908896
71177400
22338360
6733440
6530160
35207424
9530640
2909760
19833344
561920
29534208
5848700
43078320
45610944
41718456
19988100
8745408
39099712
51532800
14329656
20613120
2711808
77278240
39135744
54819028
5022072
56195436
16114896
12912480
17110520
30490880
43544736
45709440
58254336
66345036
67584
9353592
23397888
78301600
68505360
19172736
16368960
35661644
31933440
1096836
65215062
40047888
41102256
6785856
40459896
15739920
19853304
35062860
26248320
49876992
25197172
998160
29047200
34456288
39114432
23734528
71503110
77761200
19864640
80828976
181440
55434132
65818062
43818408
13783872
19222016
61729920
30243240
31467384
16273356
2686880
46427280
14784000
19036704
12189072
23875584
30618432
33232032
14244864
47585736
77698296
636000
16076880
63011080
47367936
25892508
28529280
15961680
23499072
3479224
45509040
956944
26013280
41021640
22179852
27709920
54947580
5178730
23128432
40200864
1616896
10644480
6855840
6316752
12381120
59276412
10893168
27882176
25068340
12332736
61022000
28561116
21743040
11538576
52590568
27555840
27287040
40158720
6359040
38236672
52447236
57274416
64915368
3266592
7262400
20302224
33463584
21161472
22290240
6670080
67965480
8055936
33402720
16177624
13286160
29291904
24917544
22388878
34256020
31558320
25581600
12469248
8447880
22737044
85468288
6696792
12710880
23106144
60720912
25467072
42053200
16552320
22438080
24842184
24537600
40463012
32768064
29470284
39344720
7849840
17210880
14668992
5334464
6174720
45427704
16098432
17737920
26455680
16876282
53941092
13362624
15320340
21043200
31191132
17673280
39473280
47998056
48109040
29315520
3044
21677856
30898820
6212256
12961344
72423504
26527168
78978240
26198848
6599296
12244320
10317856
97880640
28176960
27708912
13625856
28487312
10221120
20942976
6312800
25914264
28569600
40419420
21040320
4896000
44728680
53669952
32102400
43288560
15402744
12960432
9803640
15370560
42163200
14887320
17236800
1105776
9384480
1486844
20401920
2803476
3131856
93974496
21840000
2017896
5362848
7753408
43548288
11571456
32890880
32521632
18810000
57919680
68283648
4981092
36013588
55175970
23714856
13395552
61126724
5241600
20398368
24008400
17538720
76363264
89715316
34899120
72967888
43233888
57414960
14414820
29715840
4294080
13711872
27049376
43167600
88664166
19023576
17418240
27320832
27460608
54997920
95764480
13670000
64535040
21166176
37650060
29406720
50388480
27820800
42681168
10252320
18872808
18812160
34757016
41335488
75897840
5820088
36882780
2540160
11743760
8513496
4617540
6637888
8395824
41924352
62581320
3227400
19142784
8699904
13236480
272476
19250640
29958144
9649920
31152520
4893828
15765000
83109000
1818828
41628000
24079720
45818784
67695624
56574000
17307360
61604904
27940752
72347616
24488640
26153280
25611552
61306440
3446512
1445600
45582928
74301192
3035520
77058100
16632000
25938250
4913196
9526464
12035000
13063920
38557008
30393690
12661740
48123880
26342400
7203168
15386112
14240000
9775440
26826624
21733344
10311648
33583704
6413152
4245330
19491840
57177600
52120860
12575576
41003280
1564830
46732320
12163968
27609120
44487680
24388452
20887680
32651136
17716608
39201888
74133832
11447260
45059328
479360
61512360
16111872
734700
43869600
23053992
17955432
5503680
23781696
74511360
34022160
17657600
672720
83815386
35084000
25508082
43660864
51831000
52488000
65145600
47041632
26555972
947520
35956800
33119808
12354384
18569832
69449880
42643772
72723720
9301504
27706560
5980096
44454000
4157252
25204224
21496800
22096928
25112568
51535680
29505840
27917880
11555388
87872080
21188160
32141904
35828736
46468788
23643360
4165920
7171648
33414912
32507920
21765488
24127116
32955648
5645320
90856800
25583640
5630400
32461980
66194176
27585360
23688600
25809600
21200256
84913920
25788672
6879450
29146800
98195536
84700800
31767552
38230848
34961472
13968256
24650152
25982208
30518208
21543624
23063040
20122848
1776960
11623680
29859480
17213856
6026400
7257600
12396928
25270064
85999320
24299136
68660256
63227166
2270592
19877216
35905536
24539904
22283100
34513824
14444280
23104620
14320720
40334784
4737600
10532142
24103360
40000212
18560840
6184440
33534336
60007392
72976000
47131888
95033164
74455200
33271680
9439360
5224824
7930410
92512000
63466956
30219840
39681910
2669440
75941376
20106240
78463440
17372544
6417420
4894700
16982784
4401216
22314720
18218956
93065364
24538740
13676112
42283008
34855656
4722624
25052728
8398080
35670936
25462656
2646658
33611760
34394112
31804264
32232456
6591096
34727616
17596416
23375220
48003120
9977040
13382880
16913952
20622462
50437248
48248280
79825240
5990400
14750592
30656880
34292736
34059960
60514870
8043840
36788400
12939264
8016432
31253376
8254080
30797028
56609280
80217040
24234848
82851840
28988000
8575200
2243220
17415216
5251176
58173448
24422112
12901848
23507472
48406704
45895560
77548092
11455848
40353000
22968000
76428000
29214600
38251392
17817600
27667136
986752
24494598
16388022
17172480
33160296
19812384
56609280
15833664
70550208
51318240
38657440
72792
39489296
12678408
9799152
2246400
35642880
45558912
8142336
68387544
52566912
52969200
2042400
31224988
13426560
16021412
75457600
24990720
58201440
22863360
37387632
33019392
20378672
45620020
2019120
8843520
56578336
24624000
30189982
46445424
15821832
18011424
10125000
25724160
73972512
10621440
9678024
62964466
26789400
11298592
25046784
59038416
78831352
36200080
5275410
52815228
12132288
22006656
2119680
24137568
19368000
88874172
39797886
9677824
58609152
3205440
34695840
85034880
16712352
1493720
25967364
10591882
45718432
40363680
9080352
19979000
11283472
32999200
45744776
92115730
16182720
28766720
71989200
7756560
56432416
22222816
21620808
27473040
18910976
37148952
93292986
72236448
91492800
35765952
52414560
32351856
84407400
26868800
62358912
21834082
20157900
72039744
10015680
82606440
67929856
30681600
45862080
14581944
25225642
23950752
46373392
18599200
1618000
24540128
21527264
53960832
6264000
2095200
44658304
20646360
45213792
41415012
38934528
46931880
27448200
39644160
94579680
13283700
16201680
7950096
2572944
12668832
27985792
79870080
26247552
70418700
26769600
40619520
39018672
51306240
37387542
43545600
46891296
51508800
48721680
43427408
36202788
11746800
42024960
28138500
32892288
17588016
26176200
49723200
21652400
11541744
60184512
6073056
23757024
89964000
6314880
9099840
87986640
10462040
79730400
19448326
15740424
31119552
7129080
55012320
506448
18307680
5400000
5561536
46949364
10211520
25973124
7261032
25905600
20004720
25079428
42719232
21991200
15001000
10605672
63053772
26417664
71565120
14405184
25532496
94938240
8190720
38807328
8400780
11307740
8787960
12629760
58160424
35258400
45171600
14868480
27723456
45115680
37632000
74192112
17048400
12499200
40158912
44441092
59899680
9510912
10966080
38215968
50364432
10255680
34473600
4711000
17430720
13682592
19724544
24321288
23458240
35851640
21337344
196560
13028400
40866720
19492716
9996000
62985560
15851520
30587448
88936060
64702512
33625728
594432
89636680
47478480
14101464
508052
83699616
15943680
21263872
34624560
13865280
16243200
26806136
6904308
45270912
427800
26212416
16215552
30942360
34949232
10281264
32783616
1994240
32901920
34690752
40421856
14501136
23982712
45165120
20513280
34058880
7386824
219528
94117704
11015112
22604400
3603600
76394970
41768272
51494400
43225152
10899776
19964736
87705900
11002848
62692500
15612864
2831760
12854160
31489864
87925680
33598446
11412240
23919104
18506880
12376800
22270464
24479520
37123042
64385280
68445720
30130320
29998848
65879352
4449984
56587006
22714272
12684356
31906800
40019952
72580032
4271584
52412432
32529024
47295360
44972436
32634672
924268
64083200
92183112
9154848
25493616
22768608
10172736
50577696
67705224
25568136
26233440
33653664
94911870
4158528
1985280
65340000
37237584
4067084
17480320
31660800
30902400
13860000
12531456
658240
9064704
25015200
41968800
49768800
10128384
23872128
24380720
2223936
23869440
3907584
14843520
15923712
5919984
39363440
6743232
29404128
10454400
20086080
32282880
24816000
43371936
42399672
22128960
34110176
35715960
95324280
63550656
45318000
47124396
90505072
65726076
48955392
21324010
49713312
14423472
13993600
12246360
21255790
7839040
10357248
71395632
423884
7711200
21561960
25438784
23257168
49032576
32013600
42782784
18082080
14868888
43807456
21879000
28187904
34798464
37606620
29655072
30177360
7297256
37682400
28736736
27054720
86496
24206400
28872966
29885952
39909762
30948480
9812984
18630864
15464736
20199168
31171712
46945098
8520768
8220240
24321024
23003360
16052800
54726672
722818
60650880
61601760
30150720
59950800
12925440
21018560
3864280
16665600
18941424
20898750
13824462
5913910
72142992
726610
42573440
61319856
81778356
26726400
15215440
10741248
18023200
84264000
24482640
6237440
77408640
7468032
55765260
40578240
1292760
67024584
29422800
25370592
43705200
47846304
46658640
1924224
6141240
43064784
46711840
35861944
33387456
20587392
23471500
18127200
7242768
37236882
56923776
69331200
36281862
36776448
16582656
20541600
2556752
24288576
3586240
30543240
13845600
16295904
10306240
34447980
43777048
9770760
12753592
9657900
111696
9625824
10883040
16237056
11985120
31311360
27210600
39053556
20080640
17554240
48135672
45430880
31759872
34452000
57594528
4672800
27999360
69615820
29219400
30673720
16224000
55310736
34337160
28492080
71196396
35674560
2472768
9299200
4855312
81661200
24035252
16066512
72385450
24521184
12582672
63341136
1011168
9365456
3015600
70265344
25767168
51493376
31463424
7840000
16685032
62827536
44141040
9720000
74824992
18754560
44129280
54124560
45946560
87552
21081600
10993632
47550720
42971040
45181040
67521880
53833248
38685024
5055156
51409344
28690000
30250752
1222560
39623040
29065536
6994944
88214400
23020032
33669792
675432
77768964
14025600
32508360
29526912
36102000
30769362
47754360
32436808
19483200
33181836
20254624
41287680
63845736
5976960
22025024
57843456
64464816
14631200
6547500
13690880
24275040
45238752
27217318
34497424
55528400
12305088
90940960
31719280
14181048
16503696
7555920
47640596
58303200
36601616
11681280
733584
66173184
12096000
57778688
53544960
68889172
14724352
32482944
29646640
22521600
31876416
15976200
19731528
93899904
9051328
23276800
74217600
18118440
45771264
7197696
42125472
8013312
19891200
12144930
25109504
72407680
44770896
50618496
29033824
46284408
40528008
21712320
92385208
31859200
30104080
47275726
6031680
31282416
32301360
34881660
56997336
29555712
16011216
37046240
75006936
54705024
22284352
12485460
9087960
6365088
2298560
13539456
68086098
33874720
7317504
48585966
60466724
27717120
11776464
54979200
5098420
32926500
35577360
26308080
36891180
43211520
21404736
24456044
15302400
696960
24512256
64968960
58400160
35442144
75639600
23950080
9914400
36139184
36257760
28832580
15555456
12070
19776456
44505552
9513792
25263088
27910888
23718848
4228
531960
45134556
11129040
587520
14954784
50301936
3291840
2125368
31132800
64073002
41323216
14713920
6817120
46179424
4293120
17661816
49604880
3426936
20311776
6355152
35468752
33743616
9638832
10713088
9325848
7983360
60214752
6622560
25238400
62144792
15060792
24883200
12015976
41353200
12950176
34564660
29799840
14417280
36108000
24573024
32517876
26261312
48154500
52698176
7077168
5757480
3784160
14974368
82361712
20697600
45619200
46403060
26050752
22665216
16831584
165492
35017920
31605618
13003200
32336604
12967680
67197720
25895232
5932320
25394688
19649760
17640000
2536360
44166720
33295680
47526400
54302400
60274720
42543616
12526800
14767676
12996608
89280520
17635968
27364392
17902080
16208640
12529728
29904480
64672560
23387616
10339008
55441260
37001580
45662466
10264320
63529760
48052704
21965928
31532112
414336
23867600
14503680
21678656
25852896
16311048
80611258
23763456
24724224
3044240
7375104
34692720
15973200
57360960
89284800
28493824
36393268
3952392
23355744
21012480
41333760
31859360
46601280
6425280
27723680
33431832
4546488
29265408
81269760
35966728
11682720
35175716
13356264
3060288
4593264
34962948
36726504
17156160
30962136
24785796
73537984
1842240
46902240
85680000
23823360
68495584
4903680
8768760
31521144
51004800
77844600
19948032
17588448
15925248
2136684
23392320
22555548
23999436
10892512
31724170
7096752
34314440
16855040
21671046
32818624
78907566
52851240
32526426
17399664
22423296
7405920
34535424
16034304
67146000
15397776
65898000
95627448
7983360
96500160
14396436
37889280
19788552
61650288
23748480
28576026
39613920
20984832
30317328
1981320
30241408
26472960
6523440
29278792
428544
9900636
41330128
57733056
12801312
9868176
60038160
4128768
13127400
8586180
44428548
3193344
1689408
8269920
13020672
51370992
24459120
82770336
20921280
21718368
5539104
73342080
10342080
69137320
34072192
44569616
2750256
19216704
3659472
34126080
26891280
79730406
28256256
18017088
6277952
6107632
48568930
15247872
33568080
86937312
47521472
40994400
49771912
27094968
9975600
12936672
18140820
24366864
87219352
31596480
36324912
4788768
20362320
21378600
33677280
29527584
3194640
16632000
21239792
44640632
26799520
18972672
27212696
5447520
44560860
69622080
49097412
76973760
21227520
99913920
26058240
46077888
7758524
14442480
52462080
6995784
34641586
16695120
71758720
11370240
68327280
38496000
11428704
56021752
39690432
46056816
32148312
16552656
4451328
68674960
37635360
13420872
30416512
11549664
6890400
19793760
15456192
12396000
18027360
11920800
31920352
33109860
32148992
37502724
32524416
14384000
28226880
17856000
50805216
21997440
17138304
90497916
3494400
30218640
46485120
8414208
29859840
31346208
39446480
37564800
19668750
36481536
31202816
26956800
20904864
34453356
6627648
9382208
37711440
22631424
25961040
31984320
24204216
6194176
15052800
33664080
29097000
30734640
22527936
14864160
50993280
6773760
29652480
14699520
29488416
57077856
26573520
6822144
21248760
15197760
33471120
33928080
1779708
59287872
6522048
30380364
61680808
27170316
8756640
15990336
76520400
22800960
17404056
6136288
97268400
50416128
32965632
29027504
17261712
14508000
13160448
55330560
41475600
11780640
45434760
16017408
23270016
16021600
12827808
5441280
27095040
1768200
4604688
22847508
21484584
34216560
8692164
61626096
22958208
25823592
48814120
10130016
26366880
94010476
34291296
4264960
74119192
18028800
12020280
1308960
10815816
23172784
9044520
42900480
49707120
4999680
68108688
1763856
16346880
4494080
14560128
13860720
14904000
35471136
29682766
40605696
33357440
44405442
47272176
84449838
16737588
39531516
18835200
32179032
80404696
45596928
24077760
3870476
45971544
37031050
48496896
12427776
16678368
9462528
10956160
12701520
80697816
35705200
19390336
16741428
26303336
27247968
17222832
2893080
16163936
60917760
14219088
15086724
10051040
37824000
38157120
27342478
48461920
8160240
64522848
17346300
27416808
94755822
67680
57487964
87283656
9214560
10128802
81278100
12166560
56131852
20321280
21796992
11478432
34466436
48319904
39346560
23414160
40439448
20431320
16538112
46612800
12829440
39282600
2712768
36349126
22980672
2583840
43459200
26261040
27790920
42565824
15213744
14638680
9320640
31080400
28618920
32041296
47611272
3941280
65982400
45647616
42427696
4569600
22306176
51161542
17080536
16446640
73719360
383592
40252080
32457572
1157384
41459040
24673600
34643220
24854528
21855744
43523112
20600400
28006560
35387136
7137096
9086976
20602800
27939600
8630400
20806632
43740096
10293536
8516160
11112312
77107968
4320432
12747840
980964
95489280
14381640
47532512
10009600
1594080
63386112
28815360
26216064
6929832
49724160
23085378
41960160
48121920
97805400
13215744
19683644
92485476
31254640
4882800
29348000
62556624
45535104
36142080
5689152
45111958
38333680
6358968
15130080
50019480
10583560
55849536
12265344
52385760
68729152
1351152
7382016
28336092
33439296
33147000
8325504
23792928
12607452
14498544
32855040
21592270
1945332
24745600
11235840
31016448
28626240
33045408
4310200
74791462
12585408
23405760
36897120
26666388
14445760
26995200
35791360
91278880
41900856
14213760
31861260
13598208
14670720
5452976
16346448
33264000
14869920
50556912
16228800
25978700
10145952
49773516
40331304
30210048
41093668
9132048
35820880
1483200
37518708
30388248
55260160
25794240
9668560
96043080
19722240
14622720
97444966
64209600
14548608
39506400
44063712
22130280
24476256
22836024
11191520
32862936
34722332
59656032
30424320
27135360
88656960
36980320
6552000
23618880
9538560
27466488
36715128
84034848
74095200
25281720
9347576
4802460
11048800
49325760
27523584
18172512
32777568
21382272
16154400
33126800
21786624
52238496
20121600
27342000
34740000
47059200
16195584
62899756
30020880
7309440
32219200
17624752
23747182
14673600
83317984
27931056
96611592
49424640
93094120
8594464
8509384
23161600
45892880
8569728
49317408
41731200
6940080
23272420
15322284
48080880
40707024
8334560
18870240
5253264
14851632
17598040
32420664
20244516
81670720
40443480
7873992
28080000
27082308
42196672
54446352
19794096
15510896
32981760
16423680
19526400
32163480
57338448
21271404
50100864
71030664
24385896
16820928
75152448
37332948
8276400
90394012
2419200
50327200
70936360
11711232
28150560
25663680
9400768
37343552
26412480
27716352
6632626
59113152
34702400
82804590
5428800
71996986
76933260
59735980
34304160
9949296
24699520
20740460
19609616
29409600
20953620
11508480
22903776
48724416
19021296
20563200
95476320
10233256
42275520
23687682
20883744
6658728
44218300
35283200
271824
31517424
10792320
7247892
18698400
32151168
22575700
22840576
19353600
59678032
65603340
5666304
27923760
31933224
19157806
48690048
4298112
26523904
7210000
76792320
43823520
9218308
92214000
27820320
40493566
8873280
61851680
8281926
21682080
43747488
176256
4621680
1533600
24050928
19983744
56635200
19653216
24675840
15163512
14922592
30768060
21464352
56158272
28061280
46602850
21245672
11852160
6871424
44305920
13277088
27637584
91006920
12006060
8950320
29827200
18429240
35164080
12078720
53841708
27998432
92129772
61900620
27942296
22152032
23505648
19027680
9586080
45665280
89330050
45741696
35852652
27253368
29914260
59141232
61722572
15676416
11244064
23250000
23708160
5053944
85379668
25463808
69493516
22676832
49426416
38548216
91618300
35830080
22130784
37976400
17756552
11167200
49305984
316470
35017920
64843256
89294128
29892240
25258464
64247040
23496480
2906240
19038216
56315832
38853868
70047780
20612160
32475872
30023200
11558400
58299120
54164876
51016080
15985728
28886976
28455296
24843720
26376912
31168512
6992064
47600928
28037184
22849488
11338768
6350400
78073200
31591680
8533200
29930336
7369182
48761856
38860800
12833280
37770944
7159808
37027840
44755200
58989760
7418880
24001488
74486280
28550016
14016912
33709248
17907120
17710368
21181104
14186916
11731312
6232176
22789312
26550288
38142720
11941216
2669472
45444960
36058176
8499408
1360240
35327600
1262976
61273656
5141376
41860368
99894972
22384320
29265696
21288960
32501632
59002272
37919112
5959680
45659328
44720676
2947164
4523640
50073328
39933360
13973400
80674350
32248944
39780000
91179492
31357424
62439120
49196160
25660560
91934976
33925248
6565708
18310520
4677120
93735576
74683752
12675872
36300192
16962624
59933952
73872000
48343680
40680000
5089920
12154560
78445656
42531840
28540512
31620224
41262240
10527784
30689280
31432320
40675780
26431488
4354020
11603520
958160
47482272
48399360
32372352
46856700
9580032
81081256
38941680
35620032
11582736
52663176
46697040
50620800
10203032
32509488
17781120
16853760
40392000
68971000
58168320
51670080
15643368
470232
677778
10743024
10336256
32409432
60912000
48276552
22492512
17913984
22976928
90029160
7523328
13932096
20191920
35785152
32448000
13698720
61067778
12187104
39978682
36325280
7257600
29846016
2172480
89372440
26238240
38243520
14394240
16319880
22603072
7076256
39917632
37478610
18580320
35500080
94596096
61575840
23394648
22108288
25639392
23379200
7027968
52860960
48912384
24473280
25132032
11902248
32351040
3899104
5844960
3285352
5309952
24706864
21772368
23177088
27817560
26029200
45293712
23475200
76068720
14580000
32355288
90149760
31961600
32524800
20996000
13330800
